…
20. Add column that standardizes the fare (subtract the mean and divide
    by standard deviation) and name it sfare

<!-- end list -->

``` r
titanic %>% 
  mutate(sfare = (Fare - mean(Fare, na.rm = 1))/sd(Fare, na.rm = 1))
```

    ## # A tibble: 891 x 13
    ##    PassengerId Survived Pclass Name  Sex     Age SibSp Parch Ticket  Fare
    ##          <dbl>    <dbl>  <dbl> <chr> <chr> <dbl> <dbl> <dbl> <chr>  <dbl>
    ##  1           1        0      3 Brau~ male     22     1     0 A/5 2~  7.25
    ##  2           2        1      1 Cumi~ fema~    38     1     0 PC 17~ 71.3 
    ##  3           3        1      3 Heik~ fema~    26     0     0 STON/~  7.92
    ##  4           4        1      1 Futr~ fema~    35     1     0 113803 53.1 
    ##  5           5        0      3 Alle~ male     35     0     0 373450  8.05
    ##  6           6        0      3 Mora~ male     NA     0     0 330877  8.46
    ##  7           7        0      1 McCa~ male     54     0     0 17463  51.9 
    ##  8           8        0      3 Pals~ male      2     3     1 349909 21.1 
    ##  9           9        1      3 John~ fema~    27     0     2 347742 11.1 
    ## 10          10        1      2 Nass~ fema~    14     1     0 237736 30.1 
    ## # ... with 881 more rows, and 3 more variables: Cabin <chr>,
    ## #   Embarked <chr>, sfare <dbl>

21. Add categorical variable named cfare that takes value cheap for
    passengers paying less the average fare and takes value expensive
    for passengers paying more than the average
fare.

<!-- end list -->

``` r
titanic %>% mutate(cfare = ifelse(Fare>mean(Fare, na.rm = 1), "expensive", "cheap"))
```

    ## # A tibble: 891 x 13
    ##    PassengerId Survived Pclass Name  Sex     Age SibSp Parch Ticket  Fare
    ##          <dbl>    <dbl>  <dbl> <chr> <chr> <dbl> <dbl> <dbl> <chr>  <dbl>
    ##  1           1        0      3 Brau~ male     22     1     0 A/5 2~  7.25
    ##  2           2        1      1 Cumi~ fema~    38     1     0 PC 17~ 71.3 
    ##  3           3        1      3 Heik~ fema~    26     0     0 STON/~  7.92
    ##  4           4        1      1 Futr~ fema~    35     1     0 113803 53.1 
    ##  5           5        0      3 Alle~ male     35     0     0 373450  8.05
    ##  6           6        0      3 Mora~ male     NA     0     0 330877  8.46
    ##  7           7        0      1 McCa~ male     54     0     0 17463  51.9 
    ##  8           8        0      3 Pals~ male      2     3     1 349909 21.1 
    ##  9           9        1      3 John~ fema~    27     0     2 347742 11.1 
    ## 10          10        1      2 Nass~ fema~    14     1     0 237736 30.1 
    ## # ... with 881 more rows, and 3 more variables: Cabin <chr>,
    ## #   Embarked <chr>, cfare <chr>

22. Add categorical variable named cage that takes value 0 for age 0-10,
    1 for age 10-20, 2 for age 20-30, and so
on

<!-- end list -->

``` r
titanic %>% mutate(cage = cut(Age, breaks = c(0,10,20,30,40,50,60,70,80,90,Inf), labels = c(0,1,2,3,4,5,6,7,8,9)))
```

    ## # A tibble: 891 x 13
    ##    PassengerId Survived Pclass Name  Sex     Age SibSp Parch Ticket  Fare
    ##          <dbl>    <dbl>  <dbl> <chr> <chr> <dbl> <dbl> <dbl> <chr>  <dbl>
    ##  1           1        0      3 Brau~ male     22     1     0 A/5 2~  7.25
    ##  2           2        1      1 Cumi~ fema~    38     1     0 PC 17~ 71.3 
    ##  3           3        1      3 Heik~ fema~    26     0     0 STON/~  7.92
    ##  4           4        1      1 Futr~ fema~    35     1     0 113803 53.1 
    ##  5           5        0      3 Alle~ male     35     0     0 373450  8.05
    ##  6           6        0      3 Mora~ male     NA     0     0 330877  8.46
    ##  7           7        0      1 McCa~ male     54     0     0 17463  51.9 
    ##  8           8        0      3 Pals~ male      2     3     1 349909 21.1 
    ##  9           9        1      3 John~ fema~    27     0     2 347742 11.1 
    ## 10          10        1      2 Nass~ fema~    14     1     0 237736 30.1 
    ## # ... with 881 more rows, and 3 more variables: Cabin <chr>,
    ## #   Embarked <chr>, cage <fct>
…
3.  Calculate the travel speed (TRAV\_SP variable) by day. Compare the
    travel speed of the first 5 days and the last 5 days of months.

<!-- end list -->

``` r
cc %>% 
  group_by(DAY) %>% 
  summarize(mean(TRAV_SP, na.rm = TRUE))
```

    ## # A tibble: 31 x 2
    ##      DAY `mean(TRAV_SP, na.rm = TRUE)`
    ##    <dbl>                         <dbl>
    ##  1     1                          59.1
    ##  2     2                          55  
    ##  3     3                          60.8
    ##  4     4                          40.9
    ##  5     5                          46.2
    ##  6     6                          47.3
    ##  7     7                          45.9
    ##  8     8                          52.5
    ##  9     9                          50.8
    ## 10    10                          50.4
    ## # ... with 21 more rows
…
